{
    "file" : "EMPFlow.json",
    "ca_blocks": [
        {"block": "TruthLabelling", "suffix": "tdd"},
        {"block": "ExampleDecorator", "decorator_value": 444.4}
    ],
    "decorate": {
        "suffix": "tdd"
    },
    "variables": {
        "jet": {
            "halves": ["exampleDecorator"]
        }
    }
}
